{
	"info": {
		"_postman_id": "86d48b8e-fefa-4907-b444-556e73aa2fe2",
		"name": "LearningRESTFULservice",
		"schema": "https://schema.getpostman.com/json/collection/v2.1.0/collection.json",
		"_exporter_id": "25091600"
	},
	"item": [
		{
			"name": "GetUsers",
			"event": [
				{
					"listen": "test",
					"script": {
						"exec": [
							"pm.test(\"Status code is 200\", function () {",
							"    pm.response.to.have.status(200);",
							"});",
							"",
							"pm.test(\"Response time is less than 200ms\", function () {",
							"    pm.expect(pm.response.responseTime).to.be.below(200);",
							"});",
							"",
							"//schema ",
							"",
							"var schema = ",
							"{",
							"    \"$id\": \"http://example.com/example.json\",",
							"    \"type\": \"object\",",
							"    \"default\": {},",
							"    \"title\": \"Root Schema\",",
							"    \"required\": [",
							"        \"page\",",
							"        \"per_page\",",
							"        \"total\",",
							"        \"total_pages\",",
							"        \"data\",",
							"        \"support\"",
							"    ],",
							"    \"properties\": {",
							"        \"page\": {",
							"            \"type\": \"integer\",",
							"            \"default\": 0,",
							"            \"title\": \"The page Schema\",",
							"            \"examples\": [",
							"                1",
							"            ]",
							"        },",
							"        \"per_page\": {",
							"            \"type\": \"integer\",",
							"            \"default\": 0,",
							"            \"title\": \"The per_page Schema\",",
							"            \"examples\": [",
							"                6",
							"            ]",
							"        },",
							"        \"total\": {",
							"            \"type\": \"integer\",",
							"            \"default\": 0,",
							"            \"title\": \"The total Schema\",",
							"            \"examples\": [",
							"                12",
							"            ]",
							"        },",
							"        \"total_pages\": {",
							"            \"type\": \"integer\",",
							"            \"default\": 0,",
							"            \"title\": \"The total_pages Schema\",",
							"            \"examples\": [",
							"                2",
							"            ]",
							"        },",
							"        \"data\": {",
							"            \"type\": \"array\",",
							"            \"default\": [],",
							"            \"title\": \"The data Schema\",",
							"            \"items\": {",
							"                \"type\": \"object\",",
							"                \"title\": \"A Schema\",",
							"                \"required\": [",
							"                    \"id\",",
							"                    \"email\",",
							"                    \"first_name\",",
							"                    \"last_name\",",
							"                    \"avatar\"",
							"                ],",
							"                \"properties\": {",
							"                    \"id\": {",
							"                        \"type\": \"integer\",",
							"                        \"title\": \"The id Schema\",",
							"                        \"examples\": [",
							"                            1,",
							"                            2,",
							"                            3,",
							"                            4,",
							"                            5,",
							"                            6",
							"                        ]",
							"                    },",
							"                    \"email\": {",
							"                        \"type\": \"string\",",
							"                        \"title\": \"The email Schema\",",
							"                        \"examples\": [",
							"                            \"george.bluth@reqres.in\",",
							"                            \"janet.weaver@reqres.in\",",
							"                            \"emma.wong@reqres.in\",",
							"                            \"eve.holt@reqres.in\",",
							"                            \"charles.morris@reqres.in\",",
							"                            \"tracey.ramos@reqres.in\"",
							"                        ]",
							"                    },",
							"                    \"first_name\": {",
							"                        \"type\": \"string\",",
							"                        \"title\": \"The first_name Schema\",",
							"                        \"examples\": [",
							"                            \"George\",",
							"                            \"Janet\",",
							"                            \"Emma\",",
							"                            \"Eve\",",
							"                            \"Charles\",",
							"                            \"Tracey\"",
							"                        ]",
							"                    },",
							"                    \"last_name\": {",
							"                        \"type\": \"string\",",
							"                        \"title\": \"The last_name Schema\",",
							"                        \"examples\": [",
							"                            \"Bluth\",",
							"                            \"Weaver\",",
							"                            \"Wong\",",
							"                            \"Holt\",",
							"                            \"Morris\",",
							"                            \"Ramos\"",
							"                        ]",
							"                    },",
							"                    \"avatar\": {",
							"                        \"type\": \"string\",",
							"                        \"title\": \"The avatar Schema\",",
							"                        \"examples\": [",
							"                            \"https://reqres.in/img/faces/1-image.jpg\",",
							"                            \"https://reqres.in/img/faces/2-image.jpg\",",
							"                            \"https://reqres.in/img/faces/3-image.jpg\",",
							"                            \"https://reqres.in/img/faces/4-image.jpg\",",
							"                            \"https://reqres.in/img/faces/5-image.jpg\",",
							"                            \"https://reqres.in/img/faces/6-image.jpg\"",
							"                        ]",
							"                    }",
							"                },",
							"                \"examples\": [{",
							"                    \"id\": 1,",
							"                    \"email\": \"george.bluth@reqres.in\",",
							"                    \"first_name\": \"George\",",
							"                    \"last_name\": \"Bluth\",",
							"                    \"avatar\": \"https://reqres.in/img/faces/1-image.jpg\"",
							"                },",
							"                {",
							"                    \"id\": 2,",
							"                    \"email\": \"janet.weaver@reqres.in\",",
							"                    \"first_name\": \"Janet\",",
							"                    \"last_name\": \"Weaver\",",
							"                    \"avatar\": \"https://reqres.in/img/faces/2-image.jpg\"",
							"                },",
							"                {",
							"                    \"id\": 3,",
							"                    \"email\": \"emma.wong@reqres.in\",",
							"                    \"first_name\": \"Emma\",",
							"                    \"last_name\": \"Wong\",",
							"                    \"avatar\": \"https://reqres.in/img/faces/3-image.jpg\"",
							"                },",
							"                {",
							"                    \"id\": 4,",
							"                    \"email\": \"eve.holt@reqres.in\",",
							"                    \"first_name\": \"Eve\",",
							"                    \"last_name\": \"Holt\",",
							"                    \"avatar\": \"https://reqres.in/img/faces/4-image.jpg\"",
							"                },",
							"                {",
							"                    \"id\": 5,",
							"                    \"email\": \"charles.morris@reqres.in\",",
							"                    \"first_name\": \"Charles\",",
							"                    \"last_name\": \"Morris\",",
							"                    \"avatar\": \"https://reqres.in/img/faces/5-image.jpg\"",
							"                },",
							"                {",
							"                    \"id\": 6,",
							"                    \"email\": \"tracey.ramos@reqres.in\",",
							"                    \"first_name\": \"Tracey\",",
							"                    \"last_name\": \"Ramos\",",
							"                    \"avatar\": \"https://reqres.in/img/faces/6-image.jpg\"",
							"                }]",
							"            },",
							"            \"examples\": [",
							"                [{",
							"                    \"id\": 1,",
							"                    \"email\": \"george.bluth@reqres.in\",",
							"                    \"first_name\": \"George\",",
							"                    \"last_name\": \"Bluth\",",
							"                    \"avatar\": \"https://reqres.in/img/faces/1-image.jpg\"",
							"                },",
							"                {",
							"                    \"id\": 2,",
							"                    \"email\": \"janet.weaver@reqres.in\",",
							"                    \"first_name\": \"Janet\",",
							"                    \"last_name\": \"Weaver\",",
							"                    \"avatar\": \"https://reqres.in/img/faces/2-image.jpg\"",
							"                },",
							"                {",
							"                    \"id\": 3,",
							"                    \"email\": \"emma.wong@reqres.in\",",
							"                    \"first_name\": \"Emma\",",
							"                    \"last_name\": \"Wong\",",
							"                    \"avatar\": \"https://reqres.in/img/faces/3-image.jpg\"",
							"                },",
							"                {",
							"                    \"id\": 4,",
							"                    \"email\": \"eve.holt@reqres.in\",",
							"                    \"first_name\": \"Eve\",",
							"                    \"last_name\": \"Holt\",",
							"                    \"avatar\": \"https://reqres.in/img/faces/4-image.jpg\"",
							"                },",
							"                {",
							"                    \"id\": 5,",
							"                    \"email\": \"charles.morris@reqres.in\",",
							"                    \"first_name\": \"Charles\",",
							"                    \"last_name\": \"Morris\",",
							"                    \"avatar\": \"https://reqres.in/img/faces/5-image.jpg\"",
							"                },",
							"                {",
							"                    \"id\": 6,",
							"                    \"email\": \"tracey.ramos@reqres.in\",",
							"                    \"first_name\": \"Tracey\",",
							"                    \"last_name\": \"Ramos\",",
							"                    \"avatar\": \"https://reqres.in/img/faces/6-image.jpg\"",
							"                }]",
							"            ]",
							"        },",
							"        \"support\": {",
							"            \"type\": \"object\",",
							"            \"default\": {},",
							"            \"title\": \"The support Schema\",",
							"            \"required\": [",
							"                \"url\",",
							"                \"text\"",
							"            ],",
							"            \"properties\": {",
							"                \"url\": {",
							"                    \"type\": \"string\",",
							"                    \"default\": \"\",",
							"                    \"title\": \"The url Schema\",",
							"                    \"examples\": [",
							"                        \"https://contentcaddy.io?utm_source=reqres\\u0026utm_medium=json\\u0026utm_campaign=referral\"",
							"                    ]",
							"                },",
							"                \"text\": {",
							"                    \"type\": \"string\",",
							"                    \"default\": \"\",",
							"                    \"title\": \"The text Schema\",",
							"                    \"examples\": [",
							"                        \"Tired of writing endless social media content? Let Content Caddy generate it for you.\"",
							"                    ]",
							"                }",
							"            },",
							"            \"examples\": [{",
							"                \"url\": \"https://contentcaddy.io?utm_source=reqres\\u0026utm_medium=json\\u0026utm_campaign=referral\",",
							"                \"text\": \"Tired of writing endless social media content? Let Content Caddy generate it for you.\"",
							"            }]",
							"        }",
							"    },",
							"    \"examples\": [{",
							"        \"page\": 1,",
							"        \"per_page\": 6,",
							"        \"total\": 12,",
							"        \"total_pages\": 2,",
							"        \"data\": [{",
							"            \"id\": 1,",
							"            \"email\": \"george.bluth@reqres.in\",",
							"            \"first_name\": \"George\",",
							"            \"last_name\": \"Bluth\",",
							"            \"avatar\": \"https://reqres.in/img/faces/1-image.jpg\"",
							"        },",
							"        {",
							"            \"id\": 2,",
							"            \"email\": \"janet.weaver@reqres.in\",",
							"            \"first_name\": \"Janet\",",
							"            \"last_name\": \"Weaver\",",
							"            \"avatar\": \"https://reqres.in/img/faces/2-image.jpg\"",
							"        },",
							"        {",
							"            \"id\": 3,",
							"            \"email\": \"emma.wong@reqres.in\",",
							"            \"first_name\": \"Emma\",",
							"            \"last_name\": \"Wong\",",
							"            \"avatar\": \"https://reqres.in/img/faces/3-image.jpg\"",
							"        },",
							"        {",
							"            \"id\": 4,",
							"            \"email\": \"eve.holt@reqres.in\",",
							"            \"first_name\": \"Eve\",",
							"            \"last_name\": \"Holt\",",
							"            \"avatar\": \"https://reqres.in/img/faces/4-image.jpg\"",
							"        },",
							"        {",
							"            \"id\": 5,",
							"            \"email\": \"charles.morris@reqres.in\",",
							"            \"first_name\": \"Charles\",",
							"            \"last_name\": \"Morris\",",
							"            \"avatar\": \"https://reqres.in/img/faces/5-image.jpg\"",
							"        },",
							"        {",
							"            \"id\": 6,",
							"            \"email\": \"tracey.ramos@reqres.in\",",
							"            \"first_name\": \"Tracey\",",
							"            \"last_name\": \"Ramos\",",
							"            \"avatar\": \"https://reqres.in/img/faces/6-image.jpg\"",
							"        }],",
							"        \"support\": {",
							"            \"url\": \"https://contentcaddy.io?utm_source=reqres\\u0026utm_medium=json\\u0026utm_campaign=referral\",",
							"            \"text\": \"Tired of writing endless social media content? Let Content Caddy generate it for you.\"",
							"        }",
							"    }]",
							"};",
							"",
							"pm.test(\"Validate schema\", () => {",
							"pm.response.to.have.jsonSchema(schema) ;",
							"});",
							"",
							"",
							"",
							""
						],
						"type": "text/javascript",
						"packages": {}
					}
				}
			],
			"request": {
				"method": "GET",
				"header": [],
				"url": {
					"raw": "{{ServiceEndPoint}}{{ResourceEndPoint}}/users",
					"host": [
						"{{ServiceEndPoint}}{{ResourceEndPoint}}"
					],
					"path": [
						"users"
					]
				}
			},
			"response": []
		},
		{
			"name": "CreateNames",
			"event": [
				{
					"listen": "test",
					"script": {
						"exec": [
							"pm.test(\"Status code is 201\", function () {",
							"    pm.response.to.have.status(201);",
							"});",
							"",
							"pm.test(\"Response time is less than 500ms\", function () {",
							"    pm.expect(pm.response.responseTime).to.be.below(500);",
							"});",
							"",
							"var schema = ",
							"",
							"{",
							"    \"$id\": \"http://example.com/example.json\",",
							"    \"type\": \"object\",",
							"    \"default\": {},",
							"    \"title\": \"Root Schema\",",
							"    \"required\": [",
							"        \"name\",",
							"        \"job\",",
							"        \"id\",",
							"        \"createdAt\"",
							"    ],",
							"    \"properties\": {",
							"        \"name\": {",
							"            \"type\": \"string\",",
							"            \"default\": \"\",",
							"            \"title\": \"The name Schema\",",
							"            \"examples\": [",
							"                \"Madhav\"",
							"            ]",
							"        },",
							"        \"job\": {",
							"            \"type\": \"string\",",
							"            \"default\": \"\",",
							"            \"title\": \"The job Schema\",",
							"            \"examples\": [",
							"                \"QA engineer\"",
							"            ]",
							"        },",
							"        \"id\": {",
							"            \"type\": \"string\",",
							"            \"default\": \"\",",
							"            \"title\": \"The id Schema\",",
							"            \"examples\": [",
							"                \"999\"",
							"            ]",
							"        },",
							"        \"createdAt\": {",
							"            \"type\": \"string\",",
							"            \"default\": \"\",",
							"            \"title\": \"The createdAt Schema\",",
							"            \"examples\": [",
							"                \"2025-03-24T14:13:44.579Z\"",
							"            ]",
							"        }",
							"    },",
							"    \"examples\": [{",
							"        \"name\": \"Madhav\",",
							"        \"job\": \"QA engineer\",",
							"        \"id\": \"999\",",
							"        \"createdAt\": \"2025-03-24T14:13:44.579Z\"",
							"    }]",
							"};",
							"",
							"pm.test(\"Validate schema\", () => {",
							"pm.response.to.have.jsonSchema(schema) ;",
							"});"
						],
						"type": "text/javascript",
						"packages": {}
					}
				}
			],
			"request": {
				"method": "POST",
				"header": [],
				"body": {
					"mode": "raw",
					"raw": "{\n    \"name\": \"Madhav\",\n    \"job\": \"QA engineer\"\n}",
					"options": {
						"raw": {
							"language": "json"
						}
					}
				},
				"url": {
					"raw": "{{ServiceEndPoint}}{{ResourceEndPoint}}/users",
					"host": [
						"{{ServiceEndPoint}}{{ResourceEndPoint}}"
					],
					"path": [
						"users"
					]
				}
			},
			"response": []
		}
	],
	"event": [
		{
			"listen": "prerequest",
			"script": {
				"type": "text/javascript",
				"packages": {},
				"exec": [
					""
				]
			}
		},
		{
			"listen": "test",
			"script": {
				"type": "text/javascript",
				"packages": {},
				"exec": [
					""
				]
			}
		}
	],
	"variable": [
		{
			"key": "ServiceEndPoint",
			"value": "https://reqres.in",
			"type": "string"
		},
		{
			"key": "ResourceEndPoint",
			"value": "/api",
			"type": "string"
		}
	]
}